"filecd","count"
"5551","2"
"5552","2"
"5553","2"
"5554","2"
"5555","2"
"5556","2"
"5557","2"
"5558","2"
"5559","2"
"5560","2"
"5561","2"
"5562","2"
"5563","2"
"5564","2"
"5565","2"
"5566","2"
"5567","2"
"5568","2"
"5569","2"
"5570","2"
"5571","2"
"5572","2"
"5573","2"
"5574","2"
"5575","2"
"5576","2"
"5577","2"
"5578","2"
"5579","2"
"5580","2"
"5581","2"
"5582","2"
"5583","2"
"5584","2"
"5585","2"
"5586","2"
"5587","2"
"5588","2"
"5589","2"
"5590","2"
"5591","2"
"5592","2"
"5593","2"
"5594","2"
"5595","2"
"5596","2"
"5597","2"
"5598","2"
"5599","2"
"5600","2"
"5601","2"
"5602","2"
"5603","2"
"5604","2"
"5605","2"
"5606","2"
"5607","2"
"5608","2"
"5609","2"
"5610","2"
"5611","2"
"5612","2"
"5613","2"
"5614","2"
"5615","2"
"5616","2"
"5617","2"
"5618","2"
"5619","2"
"5620","2"
"5621","2"
"5622","2"
"5623","2"
"5624","2"
"5625","2"
"5626","2"
"5627","2"
"5628","2"
"5629","2"
"5630","2"
"5631","2"
"5632","2"
"5633","2"
"5875","2"
"5876","2"
"5877","2"
"5878","2"
"5879","2"
"5880","2"
"5881","2"
"5882","2"
"5883","2"
"5884","2"
"5885","2"
"5886","2"
"5887","2"
"5888","2"
"5889","2"
"5890","2"
"5891","2"
"5892","2"
"5893","2"
"5894","2"
"5895","2"
"5896","2"
"5897","2"
"5898","2"
"5899","2"
"5900","2"
"5901","2"
"5902","2"
"5903","2"
"5904","2"
"5905","2"
"5906","2"
"5907","2"
"5908","2"
"5909","2"
"5935","2"
"5936","2"
"5937","2"
"5938","2"
"5939","2"
"5940","2"
"5941","2"
"5942","2"
"5943","2"
"5944","2"
"5945","2"
"5946","2"
"5947","2"
"5948","2"
"5949","2"
"5950","2"
"5951","2"
"5952","2"
"5953","2"
"5954","2"
"5955","2"
"5956","2"
"5957","2"
"5958","2"
"5959","2"
"5960","2"
"5961","2"
"5962","2"
"5963","2"
"5964","2"
"5965","2"
"5966","2"
"5967","2"
"5968","2"
"5969","2"
"5970","2"
"5971","2"
"5972","2"
"5973","2"
"5974","2"
"5975","2"
"5976","2"
"5977","2"
"5978","2"
"5979","2"
"5980","2"
"5981","2"
"5982","2"
"5983","2"
"5984","2"
"5985","2"
"5986","2"
"5987","2"
"5988","2"
"5989","2"
"5990","2"
"5991","2"
"5992","2"
"5993","2"
"5994","2"
"5995","2"
"5997","2"
"6001","2"
"6002","2"
"6003","2"
"6007","2"
"6008","2"
"6010","2"
"6012","2"
"6014","2"
"6015","2"
"6016","2"
"6017","2"
"6018","2"
"6019","2"
"6022","2"
"6025","2"
"6026","2"
"6027","2"
"6028","2"
"6030","2"
"6032","2"
"6037","2"
"6038","2"
"6041","2"
"6378","2"
"6379","2"
"6380","2"
"6381","2"
"6382","2"
"6383","2"
"6384","2"
"6385","2"
"6386","2"
"6387","2"
"6388","2"
"6389","2"
"6390","2"
"6391","2"
"6392","2"
"6393","2"
"6394","2"
"6395","2"
"6396","2"
"6397","2"
"6398","2"
"6399","2"
"6400","2"
"6401","2"
"6402","2"
"6403","2"
"6404","2"
"6405","2"
"6406","2"
"6407","2"
"6408","2"
"6409","2"
"6410","2"
"6411","2"
"6412","2"
"6413","2"
"6414","2"
"6415","2"
"6416","2"
"6417","2"
"6418","2"
"6419","2"
"6420","2"
"6421","2"
"6422","2"
"6423","2"
"6424","2"
"6425","2"
"6426","2"
"6427","2"
"6428","2"
"6429","2"
"6430","2"
"6431","2"
"6432","2"
"6433","2"
"6434","2"
"6435","2"
"6436","2"
"6437","2"
"6438","2"
"6439","2"
"6440","2"
"6441","2"
"6442","2"
"6443","2"
"6444","2"
"6445","2"
"6446","2"
"6447","2"
"6448","2"
"6449","2"
"6450","2"
"6451","2"
"6452","2"
"6453","2"
"6454","2"
"6455","2"
"6456","2"
"6457","2"
"6458","2"
"6459","2"
"6460","2"
"6461","2"
"6462","2"
"6463","2"
"6464","2"
"6465","2"
"6466","2"
"6467","2"
"6468","2"
"6469","2"
"6470","2"
"6471","2"
"6472","2"
"6473","2"
"6474","2"
"6475","2"
"6476","2"
"6477","2"
"6478","2"
"6479","2"
"6480","2"
"6481","2"
"6482","2"
"6483","2"
"6484","2"
"6485","2"
"6486","2"
"6487","2"
"6488","2"
"6489","2"
"6490","2"
"6491","2"
"6492","2"
"6493","2"
"6494","2"
"6495","2"
"6496","2"
"6497","2"
"6498","2"
"6499","2"
"6500","2"
"6501","2"
"6502","2"
"6503","2"
"6504","2"
"6505","2"
"6506","2"
"6507","2"
"6508","2"
"6509","2"
"6510","2"
"6511","2"
"6512","2"
"6518","2"
"6519","2"
"6520","2"
"6521","2"
"6522","2"
"6523","2"
"6524","2"
"6525","2"
"6526","2"
"6527","2"
"6528","2"
"6529","2"
"6530","2"
"6531","2"
"6532","2"
"6533","2"
"6534","2"
"6535","2"
"6536","2"
"6537","2"
"6538","2"
"6920","2"
"6964","2"
"6965","2"
"6966","2"
"6967","2"
"6968","2"
"6969","2"
"6970","2"
"6971","2"
"6972","2"
"6973","2"
"6974","2"
"6975","2"
"6976","2"
"6977","2"
"6978","2"
"6979","2"
"6980","2"
"6981","2"
"6982","2"
"6983","2"
"6984","2"
"6985","2"
"6986","2"
"6987","2"
"6988","2"
"6989","2"
"6990","2"
"6991","2"
"6992","2"
"6993","2"
"6994","2"
"6995","2"
"6996","2"
"6997","2"
"6998","2"
"7098","2"
"7099","2"
"7100","2"
"7101","2"
"7102","2"
"7103","2"
"7104","2"
"7105","2"
"7106","2"
"7107","2"
"7108","2"
"7109","2"
"7110","2"
"7111","2"
"7112","2"
"7113","2"
"7114","2"
"7115","2"
"7116","2"
"7117","2"
"7118","2"
"7119","2"
"7120","2"
"7124","2"
"7125","2"
"7126","2"
"7127","2"
"7128","2"
"7129","2"
"7130","2"
"7131","2"
"7132","2"
"7133","2"
"7134","2"
"7135","2"
"7136","2"
"7137","2"
"7138","2"
"7139","2"
"7140","2"
"7141","2"
"7142","2"
"7143","2"
"7144","2"
"7145","2"
"7146","2"
"7147","2"
"7148","2"
"7149","2"
"7150","2"
"7151","2"
"7152","2"
"7153","2"
"7154","2"
"7155","2"
"7156","2"
"7157","2"
"7158","2"
"7159","2"
"7160","2"
"7161","2"
"7162","2"
"7163","2"
"7164","2"
"7165","2"
"7166","2"
"7167","2"
"7168","2"
"7169","2"
"7170","2"
"7171","2"
"7172","2"
"7173","2"
"7174","2"
"7175","2"
"7176","2"
"7177","2"
"7178","2"
"7179","2"
"7180","2"
"7181","2"
"7182","2"
"7183","2"
"7184","2"
"7185","2"
"7186","2"
"7187","2"
"7188","2"
"7189","2"
"7190","2"
"7191","2"
"7192","2"
"7193","2"
"7194","2"
"7195","2"
"7196","2"
"7197","2"
"7198","2"
"7199","2"
"7200","2"
"7201","2"
"7202","2"
"7203","2"
